S105DFFE2000FD
S113E0001AFF4F1F8B0F367F01A510CE04008EE13F
S113E0100DCE0000C61B8D318EE128CE001BC61527
S113E0208D278D2D1C008E00001F12CE040034504D
S113E030343034308E0180C63A6F805A26FB8EE429
S113E04026BDE0EA9D277EE157A680A7C05A26F99F
S113E050393913F6D000391A400F371CBF12121A7F
S113E06040D63739F7D000393412D7304F9D1BC40E
S113E0707FC1082704C17F26144D27F1C6089D1EC1
S113E080C6209D1EC6089D1E301F4A20E0C10D27D4
S113E0900DC10A2613F601A5C10D27D1C60AF70141
S113E0A0A59D271F89351239C109270FC12025BD18
S113E0B0913027B99D1EE7804C20B2C620913027AD
S113E0C0AC9D1EE7804C850726F120A134161F98CD
S113E0D04D2707E6809D1E4A26F93516393404C6B5
S113E0E00D9D1EC60A9D1E3504393414E6809D24F8
S113E0F0351439340286FF9737A6618A40A7613503
S113E100023B34063D350683000126F6397EE101E3
S113E1107EE1017EE0F37EE1017EE1487EE1017E65
S113E120F2DD7EF8077EF5097EE0527EE0647EE053
S113E130687EE0CC7EE0DD7EE0577EE10234103480
S113E1407FBE0180AF6A2007EC6A830001ED6A1C80
S113E15040BDE840BDE77B10FF01A6C62E9D1E8E84
S113E1600100C6809D215D27EE3A6F848E0100E692
S113E17080C4DFC041253EC11A243A8EE181586E25
S113E18095F84DE876E6C9E5D9E633EA2AE70FE1E2
S113E190C0E6B7E71EE1B5E1B5E9E7E1B5E1B5E70A
S113E1A03DE1B5E7DCE8E4E1B5F27FE1B5E1B5E1F5
S113E1B0B5E1B5E1B58EE484BDE0EA9D277EE15783
S113E1C08EE1CFE680270517FE9A20F77EE1570DF2
S113E1D00A436F6D6D616E6473206C6973740D0A0C
S113E1E02D2D2D2D2D2D2D2D2D2D2D2D2D2D2D0D7B
S113E1F00A41736D202020202020207B416164642B
S113E200727D0D0A556E61736D20202020207B5590
S113E210206F72205561646472206F7220556164AE
S113E22064722C6C656E6774687D0D0A44756D703C
S113E2302020202020207B44206F7220443C6164F5
S113E24064723E206F7220443C616464723E2C3CD4
S113E2506C656E6774683E7D0D0A456E7465722048
S113E260202020207B45206F7220453C616464722D
S113E2703E206F7220453C616464723E203C6279AA
S113E2807465733E206F7220453C616464723E7312
S113E2907472696E677D0D0A427265616B2020207D
S113E2A020207B42206F7220423C616464723E2EC7
S113E2B0204220646973706C6179732C20423C6144
S113E2C06464723E2073657473206F7220636C659E
S113E2D061727320627265616B706F696E747D0D1B
S113E2E00A46696E642020202020207B46616464F5
S113E2F072206279746573206F722046616464725F
S113E300226173636969227D0D0A476F20202020F2
S113E310202020207B47206F7220473C6164647278
S113E3203E7D0D0A43616C632020202020207B4326
S113E3306865786E756D7B2B7C2D7C2A6865786E9C
S113E340756D7D7D0D0A496E7020202020202020CF
S113E3507B49616464727D0D0A4A756D70202020CA
S113E3602020207B4A3C616464723E7D0D0A4D6F1F
S113E37076652020202020207B4D3C61646472312E
S113E3803E2C3C61646472323E2C3C6C656E676862
S113E390743E7D0D0A53746570204F766572207B40
S113E3A0507D0D0A526567732020202020207B5267
S113E3B0206F7220523C6C65747465723E3C6865D3
S113E3C0783E7D0D0A537265632020202020207B37
S113E3D0534F3C616464723E206F722053533C611E
S113E3E06464723E2C3C6C656E3E206F7220533127
S113E3F03C62797465733E206F722053393C6279B4
S113E4007465733E7D0D0A5472616365202020207B
S113E410207B547D0D0A48656C702020202020202C
S113E4207B487D0D0A005D0D0A57656C636F6D6551
S113E43020746F2042554747592076657273696F7F
S113E4406E20312E31202D2044310D0A2020202031
S113E450202020206279204C656E6E617274204207
S113E460656E7363686F700D0A20706F72746564F3
S113E4702062792045727475726B204B6F63616CF6
S113E48061720D0A0F556E6B6E6F776E20636F6D40
S113E4906D616E640E427265616B706F696E74209B
S113E4A073657412427265616B706F696E74206378
S113E4B06C656172656410427265616B706F696E40
S113E4C074732066756C6C114572726F7220696E7C
S113E4D02053207265636F72640A533930333030CD
S113E4E03030464310496E76616C6964206D6E6508
S113E4F06D6F6E69631045787072657373696F6EC2
S113E500206572726F721541646472657373696E0B
S113E51067206D6F6465206572726F720F4272615D
S113E5206E636820746F6F206C6F6E678B901989AF
S113E53040191F899D1E393402444444448DED35ED
S113E54002840F20E734048DEE35028DEA39E6802B
S113E550C12027FA39C0302513C109230CC4DFC0F8
S113E56007C1092307C10F22031CFB391A04390F01
S113E570300F310F328DD7BDE55527163404DC300A
S113E5805849584958495849EBE0DD300C32E68087
S113E59020E5DC30301F0D3239FD01848DD1271F79
S113E5A0FD0182E680C120260B8DC42712B30182AF
S113E5B0FD018439C12C26078DB52703FD0184395B
S113E5C08D8C8D9127121F98E6808D89270A4848E3
S113E5D04848D7309B301CFB398E0101CC0040BD2C
S113E5E0E59910BE0182861097311F20BDE545C60E
S113E5F0209D1EA6A0BDE537C620963181092602BE
S113E600C62D9D1E0A3126EB31308610E6A0C120AE
S113E6102402C62EC17F2502C62E9D1E4A26ED9DCC
S113E62027FC0184830010FD018422BA10BF0182FB
S113E6307EE1578E0101BDE56F2703FD01828D3F09
S113E6401026FB13C6459D1EFC0182BDE545C62070
S113E6509D1EA69F0182BDE537C6209D1E8E01002A
S113E660C6809D215D270D3A6F848E01008D102692
S113E670D37EE157FC0182C30001FD018220C5BDA8
S113E680E54E5D272FC12E272BC122270F301F10E7
S113E690BE0182BDE5C02715A7A020F710BE0182E8
S113E6A0A6804D270881222704A7A020F310BF01CC
S113E6B0821CFB391A04398E0101BDE56F1F01A6C6
S113E6C084BDE5379D277EE1578E0101BDE56FDDF1
S113E6D034BDE54EC12B2609BDE56FD334DD3420AE
S113E6E0F0C12D260EBDE56F5343C30001D334DDC5
S113E6F03420DEC12A260EBDE56FDD329635D633D1
S113E7003DDD3420CCDC34BDE5459D277EE1578ECC
S113E7100101BDE56F2702ED6ABDE85A35FF8E01A0
S113E72001EC6AFD0180BDE56FED6A1F41327E1F79
S113E73043C60CBDE049CCE13DED6C20DC10AE6A73
S113E740BDEFA610BF019E10BF01801183EE762796
S113E750DA20C69D1EC63D9D1EBDE537C6209D1E02
S113E760399D1EC63D9D1E1F20BDE545C6209D1E2C
S113E7703909454648494E5A5643208EE771BDE053
S113E780EAC641A6638DCCC642A6648DC6C6449D26
S113E7901EC650A6658DBCC65810AE668DC3C6593C
S113E7A010AE688DBCC65510AE6A8DB5C6531F42F7
S113E7B0312E8DAD9D27C608A66234045F4859CB1F
S113E7C0309D1E35045A26F2C6209D1EC65010AE3A
S113E7D06C8D8EBDEFA6BDF0899D27398E0101BDDC
S113E7E0E54E5D26058D947EE157108EE8364FC4C4
S113E7F0DF6DA41027F9BEE1A027034C20F33402F7
S113E800BDE56F3406A66281042409E6613263E73C
S113E810E67EE1578108240C35103261488004AF4C
S113E820E67EE1573540326133541F411F34C60C34
S113E830BDE0497EE1574341424458595550532065
S113E8408E01868609EE81E680118300002702E7A7
S113E850C44A26F1CE0000EF1D398E019E8609EED2
S113E86084270DE6C4E70211A36C2704C63FE7C45E
S113E870301D4A26EA39860897338E0101BDE56FBB
S113E880273B8E0186CE00001F3210A3842720115F
S113E890A38426021F1230030A3326EE108C0000D4
S113E8A02716EDA48EE494BDE0EA9D277EE1574F40
S113E8B05FED848EE4A320EF8EE4B620EA8E018619
S113E8C0EC842707BDE545C6209D1E30030A332688
S113E8D0EF9D277EE157BDE5C0102700771F89DB38
S113E8E033D733398E0101E680C4DFC14F2770C1AD
S113E8F053277AE61F0F34C1312706C13926550C38
S113E900340F338DD1800297358DCB34028DC735CA
S113E910041E89FE01A1270FFE01A3260A3406B3B3
S113E92001A1FD01A33506B301A31F028DA80A3579
S113E9302704A7A020F60C33261A0D341027F81745
S113E940108C0000270310AF6A4F5FFD01A1FD0189
S113E950A37EE1578EE4C7BDE0EA9D277EE157BD63
S113E960E56FFD01A14F5FFD01A37EE157CC0100DE
S113E970BDE599FC01A12709FC0182B301A1FD01B8
S113E980A3FC01842748108300102502C610D73049
S113E99050FE018433C5FF0184C6539D1EC6319DBC
S113E9A01E0F31D630CB038D30FC01821F02B30120
S113E9B0A31E898D241E898D20E6A08D1C0A302675
S113E9C0F810BF0182D631538D0F9D2720B38EE4FA
S113E9D0D9BDE0EA9D277EE15734021F98DB31D789
S113E9E031BDE5373502398E0101BDE56F1027F7DA
S113E9F0C4DD34BDE54EC12C1026F7B9BDE56F105A
S113EA0027F7B21F03BDE54EC12C1026F7A7BDE5BD
S113EA106F1027F7A01F029E34A680A7C4A1C426A6
S113EA20FC3341313F26F27EE1578E0101BDE56F93
S113EA301F02BDE54EC1222611CE01004FE68027FC
S113EA401FC122271BE7C04C20F3CE0100301F4F0B
S113EA503402BDE5C01F8935022705E7C04C20F00C
S113EA604D1027F6F20F3497351F2196358CE000B0
S113EA70240930868CD0001024F6DC1F21CE01003E
S113EA80E680E1C026144A26F71F20BDE5459D27F0
S113EA900C34963481101027F6BD312120CB41422D
S113EAA058202000003A4144434120070089414452
S113EAB04342200700C9414444412007008B41449C
S113EAC04442200700CB41444444200800C3414E43
S113EAD0444120070084414E4442200700C4414E73
S113EAE044434302001C41534C20200A0008415374
S113EAF04C412000004841534C42200000584153EF
S113EB005220200A0007415352412000004741533C
S113EB105242200000574243432020040024424331
S113EB205320200400254245512020040027424759
S113EB3045202004002C424754202004002E424843
S113EB404920200400224248532020040024424942
S113EB5054412007008542495442200700C5424CD5
S113EB6045202004002F424C4F2020040025424C15
S113EB70532020040023424C54202004002D424DF5
S113EB8049202004002B424E4520200400264250F8
S113EB904C202004002A42524120200400204252EA
S113EBA04E2020040021425352202004008D42565E
S113EBB04320200400284256532020040029434CBB
S113EBC05220200A000F434C52412000004F434C76
S113EBD052422000005F434D504120070081434DC5
S113EBE05042200700C1434D504420091083434D37
S113EBF050532009118C434D505520091183434D26
S113EC0050582008008C434D50592009108C434F14
S113EC104D20200A0003434F4D4120000043434F41
S113EC204D4220000053435741492002003C4441D7
S113EC3041202000001944454320200A000A44458D
S113EC4043412000004A444543422000005A454FB6
S113EC50524120070088454F5242200700C84551C1
S113EC605520200D000045584720200B001E464328
S113EC704220200D000146434320200D000246445B
S113EC804220200D0003494E4320200A000C494E27
S113EC9043412000004C494E43422000005C4A4D51
S113ECA05020200A000E4A5352202008008D4C4266
S113ECB04343200510244C424353200510254C4265
S113ECC04551200510274C4247452005102C4C4245
S113ECD047542005102E4C424849200510224C422E
S113ECE04853200510244C424C452005102F4C421B
S113ECF04C4F200510254C424C53200510234C4208
S113ED004C542005102D4C424D492005102B4C42EB
S113ED104E45200510264C42504C2005102A4C42EA
S113ED205241200600164C42524E200510214C42FE
S113ED305352200600174C425643200510284C42DB
S113ED405653200510294C444120200700864C448A
S113ED504220200700C64C444420200800CC4C44E8
S113ED605320200910CE4C445520200800CE4C449A
S113ED7058202008008E4C4459202009108E4C4500
S113ED804153200300324C454155200300334C4588
S113ED904158200300304C454159200300314C5365
S113EDA04C20200A00084C534C41200000484C538E
S113EDB04C42200000584C535220200A00044C536B
S113EDC05241200000444C535242200000544D55FF
S113EDD04C202000003D4E454720200A00004E45AF
S113EDE04741200000404E454742200000504E4F0E
S113EDF05020200000124F5241202007008A4F5219
S113EE004220200700CA4F5243432002001A4F52A7
S113EE104720200D000450534853200C0034505315
S113EE204855200C003650554C53200C0035505595
S113EE304C55200C0037524D4220200D0005524FF6
S113EE404C20200A0009524F4C4120000049524FE7
S113EE504C4220000059524F5220200A0006524FC3
S113EE60524120000046524F524220000056525454
S113EE7049202000003B52545320200000395342C3
S113EE8043412007008253424342200700C25345B6
S113EE905420200D000653455444500D000753459B
S113EEA058202000001D535441202007008753544C
S113EEB04220200700C753544420200800CD535457
S113EEC05320200910CF53545520200800CF535409
S113EED058202008008F535459202009108F53556F
S113EEE042412007008053554242200700C0535539
S113EEF0424420080083535749202000003F5357C1
S113EF0049322001103F535749332001113F5359CF
S113EF104E432000001354465220200B001F54532C
S113EF205420200A000D545354412000004D5453E2
S113EF3054422000005D5820200110592020022056
S113EF405520200340532020044050432005804195
S113EF5020200802422020090444202000064343C4
S113EF60200A014343520A014450200B08445052E2
S113EF700B083F202058595553000000000000A002
S113EF809000F0E0D000F0E0D003000000000005A5
S113EF900401030504010305040000010506070735
S113EFA00102020008097F01AA7F01AEA6A0811018
S113EFB0270481112605B701AAA6A0B701AC4444D1
S113EFC044448EEF89E686F701AE8EEF79A686BBC0
S113EFD001ACB701ABCEEA9E8E0093C60DE1452786
S113EFE008FC01AA10A34627223348301F26ECCE82
S113EFF0EC6E8603B701AEB601AC7D01AA2708B654
S113F00001AA7F01AA313FB701B0391183EBA626CB
S113F0100A868DB101AC2703CEECA6B601AE84FE00
S113F020260AA6458EEF99A686B701AEB601AE486C
S113F0308EF0356E96F06FF069F070F069F070F054
S113F0407AF069F070F074F074F06FF06FF06FF0B4
S113F0506FF06FF06FF06FF06FF069F070F06FF0B9
S113F0606FF069F070F06FF070E6A01DFD01AF392C
S113F070ECA120F8E6A0F701AD39E6A02AF8F701E3
S113F080ADC40F588EF0496E951F31C6059D24C638
S113F090209D1EB601AE488EF09C6E96F06FF0B0C7
S113F0A0F0B4F0BEF0B6F176F0C6F0D4F134F0EB83
S113F0B08D29200A8D258D27FC01AF7EE5458D1F06
S113F0C0B601B07EE5378D17F601B01D109F30D321
S113F0D0307EE5458D09FC01AF20F1C6230E1EC626
S113F0E0240E1EC62C0E1EC6200E1EC60C8EEF3617
S113F0F00F30B601ADA40427358CEF40260B9731B1
S113F100B601AC8402262796318CEF45260B973145
S113F110B601AC84022717963143B401ADB701ADF3
S113F12034040D3027028DBB8D2B0C303504300593
S113F1305A26BF39B601AD444444448D078DA4B664
S113F14001AD840FC60C8EEF36A103270530055A96
S113F15026F78D013986031F13E6C0C12027059DBC
S113F1601E4A26F539B601AD444444444484038E12
S113F170EF75E6860E1E0F30B601AD2B23841F8576
S113F180102605BDF26F200AC62D9D1E8AF040BDD3
S113F190F26FBDF0E38DCE0D302704C65D9D1E39A0
S113F1A085102706C65B9D1E0C30B601AD840F4842
S113F1B08EF24F6E96860220028601BDF0E3C62DC4
S113F1C09D1E4A26F920CE8602200286019731BD73
S113F1D0F0E3BDF1659631C62B9D1E4A26F97EF1FA
S113F1E097C6419D1E7EF192C6429D1E7EF192C637
S113F1F0449D1E7EF192C63F9D1E7EF197B601B0DE
S113F2002B09BDF0DFBDE5377EF192C62D9D1E4072
S113F21020F0BDF0DFFC01AFBDE5457EF192BDF00D
S113F220DFF601B01D109F32D332BDE5458EF24B9F
S113F230C6049D247EF197BDF0DFFC01AF20E6BD3E
S113F240F0DFFC01AFBDE5457EF1972C504352F150
S113F250CBF1C7F1B9F1B5F192F1E8F1E1F1F6F1D1
S113F260FDF212F1F6F1EFF21EF237F1F6F23F8100
S113F2700A2506800AC6319D1E8B301F890E1E8DFD
S113F280037EE1578E0101CC0014BDE599FC018297
S113F290F30184FD018410BE01821F20BDE545BD3C
S113F2A0F0E73420BDEFA63510109F300F32A68052
S113F2B0BDE5370C320C329C3026F3C6209D1E0C63
S113F2C032860B913226F426E5BDF0890D362602EE
S113F2D09D2710BC018423C210BF018239E684C17A
S113F2E02D26035F300134048D11270C6DE02607B1
S113F2F04353C300011CFB39350439E680C1241093
S113F30027F26CC127260EE680A6848127260230C8
S113F310014F1CFB39C130252FC139222B0F300F6F
S113F32031C030251CC10A24183404DC3058493457
S113F3300658495849E3E1EBE08900DD30E68020D6
S113F340E0DC30301F1CFB391A04398605CE01B1CC
S113F350E6802715C1202711C4DFC1412504C15A05
S113F3602302E61FE7C04A26E74D2707C620E7C069
S113F3704A26FB9F340F3086939731D631C1FF273D
S113F38039D13025354FDB3089004456D7325849BE
S113F39058495849CEEA9E33CB1F3286058E01B1B7
S113F3A0E680E1A026064A26F77EF3BFD63224057E
S113F3B05AD73120C65CD73020C18EE4E40E157FC5
S113F3C001B710BE0182A645488EF3D3AD9610BF97
S113F3D0018239F3F5F3F9F3FDF412F438F44AF445
S113F3E05CF463F474F485F498F4BAF4E30018E775
S113F3F0A039EDA139E64720F6EC4620F5E6478D25
S113F400EEBDF59DF601AEC101102603F5F601B07F
S113F41020DDE6478DD9BDF59DB601AE81011027EB
S113F42003E081031024032BBDF746868FB701AD9B
S113F4308602B701B67EF753E6478DB3BDF5953026
S113F4401F9D12102703B67EF7BCEC468DA4BDF5B4
S113F45095301F9D12102703A47EF7E0E647BDF305
S113F460EF20EB8601B701B6BDF59DBDF57BBDF37D
S113F470EF7EF7538602B701B6BDF59DBDF57BBDA2
S113F480F3EF7EF7538602B701B6BDF59DBDF57B5C
S113F490A646BDF3F27EF753BDF59DE647B601AE31
S113F4A081011027035C81032408B601B64A2704AE
S113F4B0CB10CB60BDF3EF7EF753BDF595301FE65F
S113F4C047BDF3EFBDF817E6C458585858F701ADD7
S113F4D0E680C12C1026032ABDF817E6C4FA01AD54
S113F4E07EF3EFBDF595301FE647BDF3EF7F01AD29
S113F4F0BDF817E641FA01ADF701ADE680C12C274E
S113F500EF301FF601AD7EF3EFE647588EF5116E2E
S113F51095F535F521F536F54AF55FF56DF535F5D3
S113F52035BDF595301F9D12102702D1BDF3EFE6CE
S113F53080C12C27F139BDF5951F98E68027F63454
S113F54002E1E027F0BDF3EF20F1BDF595301F9DFA
S113F55012102702A8BDF3F2E680C12C27F139BDB1
S113F560F595301F9D12102702931F0239BDF595A2
S113F570301F9D121027028531AB39E647B601AE24
S113F580810227088103240139CB2039CB10B6012D
S113F590B64A26F5399E347F01AE7EE54E8DF6C11E
S113F5A05B26078605B701AEE680C12310270086D7
S113F5B0C12C10270098C4DF8686C141270C86859C
S113F5C0C1422706868BC1442616E680C12C260E2E
S113F5D0B701AD7F01B6BDF746BDF7282040301F07
S113F5E0301F9D1210270215FD01AF7D01B72609BA
S113F5F0B301B84D26034C20028602B701B6B6010A
S113F600AE8105260C8602B701B6868FB701AD2000
S113F610058602B701AEE680C12C10270085B6012D
S113F620AE81052510B601AD8A10B701ADE680C1E3
S113F6305D102701CD399D12102701C1FD01AFB620
S113F64001AE8105102701BA8601B701AE39BDF7B5
S113F650467F01B64FE680C12D26034C20F7301FAC
S113F66081021022019C4D262F7F01ADBDF7284F4A
S113F670E680C12B26034C20F7301F8102102201A3
S113F680814D260A8684BA01ADB701AD20908B7FE7
S113F690BA01ADB701AD20868B81B701ADBDF728A6
S113F6A016FF7B7F01ADBDF746E680C4DFC1501075
S113F6B0270057301F7F01B68D6EFC01AF7D01B767
S113F6C026381083FFF02D181083000F2E12B60178
S113F6D0AE81052717C41FFA01ADF701AD16FF3E31
S113F6E01083FF802D141083007F2E0E7C01B6C67C
S113F6F088FA01ADF701AD16FF248602B701B6C63C
S113F70089FA01ADF701AD16FF14E680C4DFC143E9
S113F7102506C152220220F2301FC68CFA01ADF731
S113F72001AD7C01AE16FEF6E680C4DF34108EEF28
S113F730754FE18027078B202AF87EF802BA01ADC5
S113F740B701AD351039B601AE810324058603B780
S113F75001AE39B601AE8103250DF601ADBDF3EF5F
S113F760B601AE84012715B601B64D27E54A270632
S113F770FC01AF7EF3F2F601B07EF3EF10BF01821D
S113F780FC01AFB301828300017D01B7261410830D
S113F790FF802D0E1083FF812E088601B701B67EEF
S113F7A0F3EF830001313F7C01AD3406F601ADBDBA
S113F7B0F3EF8602B701B635067EF3F210BF01827D
S113F7C0B301828300011083FF802D2C1083007FFE
S113F7D02E26BDF3EF8604B701AE8601B701B63914
S113F7E010BF0182B30182830002BDF3F28604B725
S113F7F001AE8602B701B6398EE51C0E158EE4F50E
S113F8000E158EE5060E1534103510BDE0EA9D2761
S113F81010FE01A67EE157C60C3424CEEF361F122B
S113F8208603E6C4C1202606E6A4C1412D18E6A03D
S113F830C4DFE1C026064A26E94C200A4C33C66AD6
S113F840E426DB16FFBC33C61F213524398E0101A3
S113F850BDE56FFD01820C36108E000010BF0184DF
S113F860FC01823406BDF28DFC0182FD01A835063F
S113F870FD0182C6099D1E8E0100C6809D215D2763
S113F880113A6F848E0100A684812E270DBDF34B9F
S112F89020C6FC01A8FD018220BE0F367EE15781
S113FFC07EE5377EE5457EE5C07EE56F7EF2FB7E0D
S105FFD0F34BED
S113FFF000000000000300060009000C000FE000F0
S9030000FC
